sorting: [0;32mOK
[0m 
259 969 430 77 180 522 574 272 831 276 910 882 694 509 367 902 491 75 115 298 704 750 142 375 811 314 186 355 594 668 334 563 330 643 975 852 449 247 683 958 390 797 652 899 164 786 622 471 133 152 175 884 295 782 927 841 201 283 917 183 483 823 513 359 798 365 808 278 280 766 309 650 567 473 669 421 944 802 573 351 918 868 710 566 361 859 776 417 289 933 215 886 974 725 398 972 393 707 623 192 524 613 124 326 187 477 287 787 229 639 148 320 233 156 895 445 60 331 729 239 216 436 862 641 616 386 254 441 679 653 961 983 440 422 820 743 855 976 870 737 162 984 197 890 713 338 381 530 979 466 324 139 112 978 100 328 418 523 950 498 447 368 775 869 85 959 964 799 627 535 389 746 642 537 212 352 420 684 748 490 207 698 937 736 744 742 300 818 827 626 119 550 740 528 681 510 741 988 604 325 408 676 592 924 224 618 715 865 661 647 932 845 549 833 153 242 829 459 485 541 516 706 340 190 526 110 419 176 934 342 196 996 261 149 503 210 134 670 843 619 953 625 392 470 332 965 193 494 155 951 675 370 609 460 457 674 411 606 146 781 856 132 904 481 756 813 721 540 109 376 784 586 771 577 539 564 377 585 942 426 366 455 222 587 514 935 343 981 297 384 521 406 600 129 751 815 189 624 372 107 138 692 290 536 763 680 930 116 227 500 414 633 543 982 871 172 495 963 603 117 945 527 198 966 834 794 553 598 714 599 943 446 779 789 632 761 315 735 165 907 230 912 593 400 657 467 442 157 225 221 909 236 773 998 508 163 696 970 307 568 614 861 504 916 405 590 790 757 989 252 452 994 482 241 734 877 170 705 185 985 583 245 830 570 161 732 812 956 640 260 559 113 995 621 905 839 739 130 284 461 273 251 238 174 764 733 991 401 476 923 255 178 159 655 857 993 362 542 497 780 768 281 428 720 752 416 413 898 204 453 443 987 169 519 396 896 677 575 955 391 487 701 203 140 114 738 997 321 569 250 915 552 199 337 947 101 151 486 858 584 264 312 234 547 880 434 615 665 106 465 864 644 697 795 150 262 576 878 919 816 872 548 111 908 348 223 901 371 356 754 166 306 126 317 177 636 202 928 836 814 

sorting: [0;32mOK
[0m 
566 317 800 516 47 816 914 353 175 231 658 324 365 835 960 411 792 961 569 994 889 986 842 957 973 622 605 416 535 462 101 884 262 850 163 310 764 749 717 996 407 41 361 242 234 427 573 260 548 791 102 505 765 956 110 413 492 909 875 825 369 675 188 679 440 937 629 668 344 902 261 818 368 265 852 795 71 113 343 862 447 80 859 404 191 272 128 100 147 953 125 748 545 428 301 715 289 201 291 560 959 962 355 307 931 357 755 216 391 202 721 519 534 868 472 891 849 333 669 509 866 384 798 67 989 761 785 549 980 137 215 287 804 274 897 514 742 280 121 691 686 200 553 457 230 364 220 846 382 799 362 138 246 881 206 51 388 286 304 285 934 312 120 716 789 476 526 478 707 611 927 160 256 299 502 164 552 23 70 367 488 264 106 240 584 179 634 659 338 348 499 579 399 313 564 559 420 418 614 788 422 214 276 945 531 210 637 512 465 221 692 461 529 233 93 546 657 877 654 298 656 500 947 594 698 115 610 568 681 797 916 375 558 149 468 118 695 213 805 103 250 831 189 561 778 747 603 723 910 172 258 320 460 613 701 928 963 628 408 433 880 507 536 571 923 349 972 838 951 441 809 861 497 699 586 817 199 518 395 379 803 812 181 543 544 114 538 743 904 533 828 855 207 869 820 168 446 751 754 186 813 393 848 438 178 954 737 557 653 665 300 430 690 631 808 617 551 975 176 204 697 865 290 423 955 316 255 779 642 618 491 595 667 527 378 607 786 633 857 498 921 714 109 725 183 425 381 436 615 570 133 329 126 913 705 794 271 173 198 985 739 942 154 964 555 593 401 711 339 906 513 279 243 359 948 414 646 612 863 151 360 444 205 484 652 995 523 244 592 703 967 677 824 709 790 886 578 528 237 283 829 648 663 443 719 661 873 563 107 135 651 130 253 965 940 966 380 449 112 471 450 724 892 245 145 670 858 141 807 270 635 769 720 295 366 929 153 856 148 412 328 473 580 574 294 409 477 682 700 209 678 370 977 108 752 539 917 662 474 196 606 854 334 834 830 740 922 400 143 992 990 896 763 907 762 895 958 410 680 796 547 331 766 212 319 396 372 950 452 674 644 170 582 434 935 167 254 689 165 232 

sorting: [0;32mOK
[0m 
388 100 998 730 948 561 336 810 672 505 671 459 771 360 565 434 618 931 149 480 479 549 91 435 623 577 279 266 726 743 887 741 617 239 535 185 281 207 922 952 666 693 312 463 128 162 626 277 643 337 58 966 772 681 543 192 524 935 929 815 909 778 54 444 195 335 883 117 520 781 42 64 244 170 227 102 680 439 738 68 420 611 612 653 765 780 582 580 921 592 634 365 787 202 904 954 261 947 737 349 245 347 510 232 647 652 259 196 496 144 961 508 959 542 429 551 408 339 842 475 796 231 654 200 292 271 497 872 782 729 519 968 613 164 342 387 126 850 346 900 512 129 308 770 700 383 509 176 179 740 226 173 751 564 855 458 293 606 659 907 849 823 249 236 181 331 814 313 843 943 854 846 876 237 355 648 327 114 107 500 413 858 177 209 945 635 734 783 526 873 632 350 354 763 686 914 761 90 839 198 168 194 482 754 596 155 486 241 663 682 190 531 417 974 57 522 838 639 877 939 795 712 788 407 875 628 605 275 323 916 527 389 724 422 915 721 121 243 352 130 981 379 448 400 800 314 631 587 928 110 550 768 622 213 186 575 334 661 403 888 989 414 424 442 885 576 290 995 840 694 507 108 269 319 600 720 230 969 376 713 578 423 691 785 985 163 711 492 504 980 566 532 398 746 718 119 208 919 585 303 140 593 415 950 104 191 784 105 432 801 322 827 513 563 493 381 257 976 256 895 538 430 891 445 255 306 396 359 377 161 147 446 469 506 707 515 433 370 690 418 898 502 906 979 688 656 944 703 473 228 667 174 375 804 808 818 406 824 861 941 598 650 145 977 301 450 529 518 625 125 547 933 597 938 756 725 679 683 265 252 124 103 853 978 143 441 309 167 902 988 834 817 484 137 478 901 621 603 620 956 410 809 816 629 494 201 936 460 594 169 412 786 896 210 813 881 965 455 774 521 794 669 676 425 736 320 443 830 477 572 709 326 836 523 199 333 728 404 660 262 166 113 472 835 920 777 545 640 437 134 912 773 865 548 172 274 409 175 366 487 767 710 440 689 268 884 483 573 488 115 892 302 380 217 516 216 135 464 733 153 762 116 996 156 235 890 560 841 474 220 946 294 544 552 382 637 215 775 798 287 

sorting: [0;32mOK
[0m 
639 668 917 91 234 798 37 782 286 332 326 916 3 479 673 102 263 772 583 645 813 221 727 28 980 44 36 864 842 230 383 713 130 300 804 364 330 74 379 848 638 937 765 641 416 438 975 680 442 559 557 487 12 284 747 992 329 783 88 403 471 117 143 921 740 333 227 119 182 865 288 179 738 617 714 849 291 505 406 10 749 923 757 973 484 541 62 887 554 533 698 537 158 385 789 483 309 463 453 246 312 167 95 835 904 734 845 885 657 603 859 141 144 260 686 265 628 455 655 298 558 319 755 629 538 209 875 608 203 918 745 763 630 826 598 489 199 742 410 459 724 784 611 574 652 649 244 419 120 501 689 555 651 434 492 647 550 245 786 220 428 208 125 165 658 774 776 722 348 660 338 997 582 380 934 150 301 801 735 213 995 926 744 146 478 185 271 236 350 161 358 116 590 454 588 551 268 163 435 618 697 156 420 664 370 696 597 258 978 342 636 457 527 139 925 109 467 417 718 103 345 371 814 897 806 432 594 963 565 187 162 907 736 544 854 495 683 779 604 984 946 304 633 704 254 281 756 340 760 711 341 844 201 138 493 388 401 269 945 640 860 369 77 905 710 302 160 679 816 148 911 397 671 976 739 748 177 877 241 642 819 688 677 278 939 184 473 576 378 289 433 989 795 336 197 766 606 452 198 252 373 107 932 884 620 377 999 111 101 396 322 423 113 751 189 429 987 994 351 781 672 888 836 882 307 609 472 684 360 572 324 850 902 914 915 122 140 498 511 678 631 514 136 503 215 443 344 919 953 502 190 950 799 506 700 847 793 830 856 508 948 624 728 299 659 518 149 940 476 791 275 958 723 571 497 404 327 248 553 709 580 437 112 316 771 273 174 725 822 449 777 891 526 930 729 411 966 247 839 690 807 450 615 767 470 465 871 616 320 532 913 832 874 780 632 840 259 703 530 292 716 100 399 880 166 499 181 863 390 682 239 469 802 730 947 794 282 893 595 691 656 967 175 933 137 931 509 233 969 126 232 702 314 661 531 959 121 243 996 612 513 176 543 409 778 575 635 715 451 129 488 601 901 376 988 785 427 507 228 194 517 152 334 542 374 964 356 797 266 294 564 313 540 466 614 389 585 737 382 824 

sorting: [0;32mOK
[0m 
312 550 714 386 676 980 680 867 32 969 145 743 765 650 881 78 423 226 544 269 262 808 658 904 536 475 641 619 857 384 401 934 390 787 611 370 699 710 635 900 855 610 665 506 491 744 161 717 520 430 211 329 321 348 865 28 989 716 118 606 392 519 540 782 539 383 385 238 94 371 949 862 687 354 303 533 515 296 863 191 324 907 442 690 532 962 463 546 501 846 931 971 172 183 574 273 632 623 935 388 682 625 777 905 181 813 856 784 577 818 247 123 551 326 287 754 498 702 358 612 27 944 780 648 694 362 130 472 268 311 566 313 399 350 890 217 830 245 764 987 886 467 548 203 679 952 561 292 979 737 304 859 242 998 222 372 470 722 915 267 315 157 681 634 997 631 216 187 330 948 159 152 837 394 836 473 538 195 914 807 462 461 851 457 571 686 640 902 678 898 450 688 221 412 127 411 897 925 557 936 250 826 707 397 768 446 779 366 876 588 279 894 879 950 367 739 810 280 696 760 700 322 468 146 369 513 246 333 831 212 911 93 825 353 636 148 982 476 848 155 695 433 465 440 985 943 773 316 415 459 899 785 107 849 302 903 891 117 958 972 653 809 791 447 474 489 119 691 664 892 341 387 672 240 668 689 189 775 723 518 673 973 642 790 614 444 626 485 139 165 115 803 290 854 920 872 142 609 917 379 310 924 751 522 660 568 734 861 655 567 235 759 709 858 455 758 740 289 816 441 224 452 747 112 547 928 376 281 443 537 425 595 225 184 301 237 395 988 153 729 827 454 545 910 344 720 889 380 437 718 116 488 736 874 913 331 868 495 620 104 880 349 334 431 477 239 624 675 731 307 338 509 445 382 106 829 748 510 814 864 817 356 497 516 713 835 257 727 173 999 234 335 977 841 133 600 188 742 669 704 961 822 799 873 639 772 947 295 389 154 252 492 601 134 355 166 271 453 164 993 671 730 219 471 339 149 375 738 762 741 410 663 426 215 266 860 563 983 666 332 932 882 847 308 231 906 278 919 575 179 288 251 535 937 274 645 527 190 769 114 265 828 277 564 194 677 286 560 260 482 845 158 460 337 801 136 721 885 285 542 526 176 318 436 800 351 209 320 844 511 878 241 763 959 466 725 483 223 122 833 

